-------------------------------------------------------------------------------
Test set: com.example.assignment2.Assignment2ApplicationTests
-------------------------------------------------------------------------------
Tests run: 1, Failures: 0, Errors: 0, Skipped: 0, Time elapsed: 5.581 s - in com.example.assignment2.Assignment2ApplicationTests
